<?xml version="1.0" encoding="utf-8"?>
<!-- Generator: Adobe Illustrator 16.0.0, SVG Export Plug-In . SVG Version: 6.00 Build 0)  -->
<!DOCTYPE svg PUBLIC "-//W3C//DTD SVG 1.1//EN" "http://www.w3.org/Graphics/SVG/1.1/DTD/svg11.dtd">
<svg version="1.1" id="Layer_1" xmlns="http://www.w3.org/2000/svg" xmlns:xlink="http://www.w3.org/1999/xlink" x="0px" y="0px"
	 width="300px" height="60px" viewBox="0 0 300 60" enable-background="new 0 0 300 60" xml:space="preserve">
<g>
	<path fill="#232465" d="M95.977,12.193l-1.346,10.951h-0.843c-1.01-8.367-4.211-9.884-11.005-9.884h-2.527l-2.921,18.416h1.461
		c3.65,0,6.737-2.582,8.535-7.579h0.728l-2.693,16.619h-0.899c0-6.401-2.64-7.637-6.513-7.637h-0.899l-2.977,17.352h4.999
		l-0.225,1.064H60.548l0.168-1.064h3.088l6.121-37.171H66.61l0.226-1.066H95.977z"/>
	<path fill="#232465" d="M124.276,47.285c-2.02,3.313-4.435,4.775-7.522,4.775c-5.559,0-7.637-2.808-6.738-7.356l-0.282-0.058
		c-1.515,4.381-4.379,7.414-9.264,7.414c-6.513,0-9.04-3.763-9.04-9.771c0-10.33,4.718-18.08,13.811-18.08
		c4.157,0,5.449,1.573,6.29,3.706l0.787-2.976c2.695,0.055,8.085,0,10.274-0.45c-1.404,6.908-2.863,13.418-4.098,21.563
		c-0.113,0.729-0.225,1.516-0.225,2.021c0,1.458,0.674,1.799,1.46,1.799c0.843,0,2.078-0.563,3.706-3.09L124.276,47.285z
		 M108.893,43.469c1.235-3.931,1.965-8.592,1.965-13.084c0-3.369-1.572-4.659-3.145-4.659c-1.685,0-2.864,1.57-3.987,5.501
		c-1.235,4.322-2.246,10.502-2.246,14.543c0,1.908,0.225,4.102,2.414,4.102C105.636,49.871,107.545,47.905,108.893,43.469"/>
	<path fill="#232465" d="M159.035,25.895l-2.304,11.79c-0.674,3.368-1.459,6.515-1.459,8.702c0,1.74,0.449,2.864,2.302,2.864
		c1.74,0,3.145-1.571,5.39-5.277l1.067,0.673c-2.134,3.876-4.884,7.467-10.443,7.467c-5.727,0-7.749-2.808-8.197-5.727
		c-2.248,3.203-4.998,5.727-9.714,5.727c-6.57,0-8.254-3.761-8.254-7.072c0-2.022,0.448-4.718,1.066-7.807l2.135-11.34h-4.043
		l0.225-1.123h4.042l1.068-5.786l9.657-2.132h1.122l-1.347,7.918h7.411l1.068-5.786l9.657-2.132h1.123l-1.348,7.918h5.896
		l-0.226,1.123H159.035z M145.334,44.031c0.112-1.855,0.56-4.155,1.066-6.797l2.133-11.34h-7.411l-2.303,11.79
		c-0.673,3.368-1.46,6.515-1.46,8.702c0,1.74,0.45,2.864,2.303,2.864C141.403,49.251,143.143,47.68,145.334,44.031"/>
	<path fill="#232465" d="M165.66,41.501c0-10.048,5.728-17.292,16.507-17.292c7.469,0,11.511,3.031,11.511,10.105
		c0,11.792-6.683,17.746-16.451,17.746C169.477,52.061,165.66,48.465,165.66,41.501 M184.189,29.15c0-2.528-0.675-3.931-2.304-3.931
		c-3.48,0-4.435,4.324-5.95,13.305c-0.618,3.596-0.899,6.797-0.899,8.763c0,2.584,0.674,3.761,2.527,3.761
		c3.144,0,3.984-3.088,5.728-13.475C183.852,34.092,184.189,31.283,184.189,29.15"/>
	<path fill="#232465" d="M198.676,40.436l2.021-14.653h-3.818l0.168-1.01h13.869l-2.414,10.555l0.28,0.057
		c1.628-4.325,5.67-11.175,11.959-11.175c2.472,0,5.223,1.235,5.223,4.998c0,3.708-2.415,5.388-5.336,5.445
		c-1.234,0-2.581-0.279-3.872-0.955l-0.338-4.658c-3.032,0.114-6.008,4.211-7.411,10.332c-1.18,5.163-1.459,8.647-1.572,11.849
		c-2.358-0.116-8.422,0.335-11.286,0.728L198.676,40.436z"/>
	<path fill="#232465" d="M243.706,47.117c-2.021,3.146-4.099,4.943-8.253,4.943c-4.268,0-7.187-1.798-7.187-6.517
		c0-1.29,0.392-3.647,0.729-5.444l2.864-14.319h-4.437l0.17-1.01h14.878c-2.245,10.892-3.199,15.777-3.93,19.708
		c-0.225,1.402-0.562,2.863-0.562,3.929c0,1.013,0.562,1.351,1.18,1.351c1.01,0,2.188-1.011,3.706-3.256L243.706,47.117z
		 M231.746,16.518c0-3.817,3.369-6.065,7.3-6.065c3.201,0,5.166,1.459,5.166,4.267c0,3.818-3.426,6.007-7.244,6.007
		C232.87,20.727,231.746,18.425,231.746,16.518"/>
	<path fill="#232465" d="M263.302,45.659c0-3.541,2.583-11.287,3.201-13.479c0.841-3.087,1.403-5.165-0.449-5.165
		c-1.966,0-3.481,2.189-5.054,5.448c-2.695,5.557-3.257,12.128-3.931,18.81c-1.742-0.055-9.601,0.226-11.174,0.56l2.414-10.499
		l2.247-15.552h-3.987l0.112-1.01H261l-2.134,9.208l0.168,0.057c2.021-5.166,4.828-9.827,11.623-9.827
		c4.155,0,6.233,2.358,6.233,6.064c0,1.292-0.226,2.696-0.563,4.043l-2.695,10.78c-0.393,1.57-0.617,2.638-0.617,3.311
		c0,1.067,0.561,1.348,1.291,1.348c1.011,0,2.077-0.615,3.762-3.256l0.899,0.563c-1.854,3.033-3.931,4.999-8.255,4.999
		C266.447,52.061,263.302,50.263,263.302,45.659"/>
	<path fill="#232465" d="M297.721,47.117c-2.021,3.146-4.099,4.943-8.253,4.943c-4.268,0-7.188-1.798-7.188-6.517
		c0-1.29,0.393-3.647,0.729-5.444l2.864-14.319h-4.436l0.168-1.01h14.88c-2.247,10.892-3.201,15.777-3.931,19.708
		c-0.225,1.402-0.563,2.863-0.563,3.929c0,1.013,0.563,1.351,1.18,1.351c1.011,0,2.19-1.011,3.706-3.256L297.721,47.117z
		 M285.762,16.518c0-3.817,3.369-6.065,7.298-6.065c3.201,0,5.167,1.459,5.167,4.267c0,3.818-3.426,6.007-7.243,6.007
		C286.884,20.727,285.762,18.425,285.762,16.518"/>
</g>
<g>
	<path fill="#3984C6" d="M16.531,18.096c1.762,0,3.525-0.008,5.287,0.004c0.953,0.005,1.593,0.585,1.628,1.433
		c0.039,0.917-0.586,1.623-1.518,1.628c-3.61,0.015-7.22,0.014-10.832,0.001c-0.884-0.002-1.554-0.688-1.559-1.519
		c-0.004-0.851,0.663-1.532,1.576-1.54C12.921,18.084,14.726,18.096,16.531,18.096"/>
	<path fill="#3984C6" d="M16.758,13.13c0.61,0,1.221,0,1.831,0c0.926,0.004,1.591,0.577,1.638,1.411
		c0.047,0.829-0.554,1.587-1.45,1.631c-1.332,0.063-2.669,0.051-4.002,0.006c-0.725-0.023-1.303-0.569-1.436-1.191
		c-0.145-0.681,0.163-1.368,0.81-1.704c0.203-0.104,0.46-0.104,0.693-0.15c0.027-0.007,0.057-0.002,0.084-0.002H16.758z"/>
	<path fill="#3984C6" d="M10.962,6.159c-0.653,0-1.308,0.024-1.96-0.006C8.31,6.121,7.704,5.639,7.577,5.079
		C7.403,4.31,7.644,3.677,8.31,3.292c0.21-0.12,0.481-0.183,0.724-0.187c1.294-0.018,2.586-0.024,3.879-0.001
		c0.716,0.012,1.229,0.426,1.429,1.057c0.195,0.617,0.008,1.296-0.568,1.683c-0.284,0.19-0.672,0.253-1.024,0.313
		c-0.29,0.05-0.595,0.013-0.893,0.013h-0.896V6.159z"/>
	<path fill="#3984C6" d="M4.752,18.1c0.371,0,0.74-0.014,1.109,0.001c0.839,0.038,1.473,0.653,1.534,1.468
		c0.053,0.717-0.495,1.474-1.284,1.542c-0.943,0.082-1.904,0.066-2.846-0.026c-0.75-0.075-1.254-0.829-1.199-1.555
		c0.058-0.74,0.657-1.36,1.404-1.414c0.425-0.031,0.853-0.004,1.28-0.004V18.1z"/>
	<path fill="#3984C6" d="M6.106,14.647c-0.057-0.847,0.718-1.529,1.56-1.536c1.104-0.009,1.651,0.772,1.661,1.529
		c0.013,0.858-0.725,1.572-1.617,1.558C6.89,16.186,6.089,15.637,6.106,14.647"/>
	<path fill="#3984C6" d="M30.243,6.183H20.021c-0.851,0-1.545-0.697-1.545-1.547c0-0.85,0.695-1.546,1.545-1.546h10.222
		c0.851,0,1.546,0.697,1.546,1.546C31.789,5.486,31.094,6.183,30.243,6.183"/>
	<path fill="#3984C6" d="M25.918,11.464H9.947c-0.851,0-1.547-0.695-1.547-1.545c0-0.852,0.697-1.547,1.547-1.547h15.971
		c0.85,0,1.546,0.695,1.546,1.547C27.464,10.77,26.768,11.464,25.918,11.464"/>
	<g>
		<defs>
			<path id="SVGID_1_" d="M37.331,39.063c-0.377-1.952,0.375-3.516,1.836-4.754c0.874-0.741,1.898-1.119,3.076-0.904
				c1.329,0.243,2.143,1.354,2.309,2.591c0.023,0.177,0.007,0.358,0.011,0.535c0.039,2.313-1.671,4.468-3.927,4.876
				c-0.169,0.028-0.341,0.046-0.512,0.046C38.882,41.453,37.638,40.653,37.331,39.063 M18.057,20.294
				c1.72,0.319,3.377,0.823,4.786,1.964c1.083,0.875,1.643,2.026,1.825,3.412c0.077,0.595,0.339,1.178,0.58,1.739
				c0.4,0.942,0.839,1.866,1.286,2.785c0.069,0.139,0.262,0.265,0.419,0.302c0.864,0.207,1.737,0.372,2.6,0.578
				c0.232,0.055,0.456,0.184,0.658,0.314c0.563,0.371,0.625,0.769,0.108,1.186c-0.451,0.359-0.963,0.677-1.498,0.897
				c-1.673,0.688-3.426,1.062-5.236,1.104c-0.462,0.013-0.901-0.041-1.291-0.191c0.34,0.714,0.702,1.455,1.08,2.212
				c0.542-0.098,1.082-0.192,1.619-0.303c1.547-0.313,3.019-0.863,4.419-1.592c2.098-1.089,3.833-2.561,4.797-4.777
				c0.689-1.584,0.832-3.24,0.564-4.952c-0.346-2.217-1.233-4.183-2.62-5.925c-0.662-0.837-1.403-1.601-2.445-1.972
				c-0.202-0.071-0.421-0.104-0.715-0.172c1.186-0.342,2.317-0.671,3.544-1.027c-0.753-0.551-1.499-0.826-2.296-0.963
				c-1.941-0.335-3.821,0.003-5.681,0.536c-0.315,0.09-0.628,0.196-0.95,0.26c-0.162,0.034-0.338-0.008-0.508-0.017
				c-0.01-0.053-0.019-0.108-0.028-0.161c0.3-0.167,0.596-0.351,0.907-0.5c1.562-0.745,3.12-1.503,4.696-2.219
				c1.68-0.765,3.403-1.437,5.205-1.853c0.917-0.212,1.859-0.357,2.814-0.126c0.669,0.164,1.112,0.572,1.258,1.208
				c0.241,1.05,0.188,2.102-0.314,3.083c-0.46,0.898-0.775,1.05-1.763,0.941c-0.051-0.005-0.102,0.011-0.153,0.019
				c-0.03,0.039-0.063,0.079-0.095,0.119c0.086,0.035,0.175,0.067,0.259,0.109c1.636,0.78,2.768,2.085,3.703,3.589
				c0.835,1.349,1.412,2.809,1.736,4.349c0.163,0.772,0.167,1.579,0.202,2.373c0.013,0.305,0.045,0.431,0.397,0.509
				c2.5,0.555,4.695,1.637,6.098,3.901c0.597,0.963,0.961,1.979,1.096,3.042c0.034,0.134,0.063,0.269,0.087,0.405
				c0.046,0.27,0.032,0.549,0.046,0.824c0.191,3.565-2.328,6.982-5.785,7.738c-0.308,0.067-0.622,0.098-0.934,0.098
				c-0.041,0.001-0.08,0-0.12-0.002c-0.344-0.008-0.687-0.054-1.022-0.142c1.513-0.67,2.771-1.866,3.573-3.322
				c0.768-1.119,1.214-2.47,1.19-3.859c-0.004-0.243,0.016-0.487-0.014-0.727c-0.175-1.303-0.88-2.498-2.027-3.124
				c-0.153-0.082-0.312-0.16-0.48-0.223c-0.315-0.101-0.651-0.169-1.006-0.198c-0.342-0.027-0.679-0.024-1.014-0.008
				c-0.075,0.004-0.151,0.013-0.228,0.019c-1.239,0.098-2.428,0.466-3.591,0.943c-0.093,0.038-0.187,0.078-0.279,0.117
				c-0.837,0.36-1.632,0.793-2.253,1.487c-0.131,0.146-0.255,0.391-0.224,0.559c0.022,0.113,0.299,0.233,0.479,0.253
				c0.004,0,0.009,0.002,0.014,0.002c0.435,0.031,0.875,0,1.314-0.004c0.062-0.001,0.123-0.001,0.184-0.002
				c0.106,0,0.2-0.004,0.317-0.004c0.059,0,0.096,0.125,0.054,0.164c-0.25,0.234-0.443,0.278-0.663,0.418
				c-0.332,0.213-0.666,0.423-1.015,0.601c-0.293,0.15-0.593,0.284-0.893,0.411c-1.478,0.622-3.038,0.979-4.62,1.264
				c-1.987,0.354-3.993,0.507-6.006,0.457c0.765,1.479,1.598,3.03,2.508,4.66c4.174,7.478,8.322,13.786,8.497,14.051
				c0.787,1.191,2.534,1.191,3.319,0l0.002-0.001c0.172-0.263,4.289-6.515,8.494-14.05c5.754-10.311,8.671-17.67,8.671-21.869
				c0-10.379-8.445-18.825-18.827-18.825C26.724,2.185,18.437,10.245,18.057,20.294"/>
		</defs>
		<clipPath id="SVGID_2_">
			<use xlink:href="#SVGID_1_"  overflow="visible"/>
		</clipPath>
		
			<linearGradient id="SVGID_3_" gradientUnits="userSpaceOnUse" x1="-265.0806" y1="328.6191" x2="-264.4839" y2="328.6191" gradientTransform="matrix(-53.8272 -53.8272 -53.8272 53.8272 3471.1875 -31912.7734)">
			<stop  offset="0" style="stop-color:#213479"/>
			<stop  offset="0.2009" style="stop-color:#2E3192"/>
			<stop  offset="0.3003" style="stop-color:#2F3594"/>
			<stop  offset="0.4451" style="stop-color:#2F409A"/>
			<stop  offset="0.6175" style="stop-color:#3152A4"/>
			<stop  offset="0.8096" style="stop-color:#3469B3"/>
			<stop  offset="0.9951" style="stop-color:#3984C6"/>
			<stop  offset="1" style="stop-color:#3984C5"/>
		</linearGradient>
		<polygon clip-path="url(#SVGID_2_)" fill="url(#SVGID_3_)" points="36.875,76.938 -9.911,30.152 36.875,-16.633 83.66,30.152 		
			"/>
	</g>
	<path fill="#FFFFFF" d="M29.106,33.405c0.533-0.218,1.046-0.535,1.497-0.897c0.519-0.415,0.456-0.813-0.106-1.184
		c-0.204-0.131-0.428-0.26-0.66-0.314c-0.862-0.205-1.737-0.371-2.599-0.577c-0.159-0.039-0.352-0.166-0.419-0.304
		c-0.449-0.919-0.889-1.844-1.288-2.784c-0.239-0.562-0.5-1.143-0.579-1.739c-0.183-1.385-0.742-2.537-1.825-3.413
		c-1.409-1.141-3.067-1.644-4.784-1.964c-0.009,0.237-0.019,0.478-0.019,0.717c0,0.329,0.024,0.685,0.061,1.052
		c0.566,0.301,1.083,0.674,1.407,1.267c0.071,0.129,0.064,0.361-0.008,0.481c-0.047,0.079-0.297,0.091-0.432,0.05
		c-0.248-0.074-0.491-0.158-0.736-0.242c0.548,2.762,1.874,6.361,3.961,10.763c0.391,0.15,0.83,0.204,1.292,0.193
		C25.68,34.466,27.433,34.094,29.106,33.405"/>
</g>
</svg>
